…
Calculating cluster 11
Calculating cluster 12
Calculating cluster 13
Calculating cluster 14
Calculating cluster 15
Calculating cluster 16
Calculating cluster 17
Calculating cluster 18
Calculating cluster 19
Calculating cluster 20
Calculating cluster 21
Calculating cluster 22
Calculating cluster 23
> markers %>% group_by(cluster) %>% top_n(n=100, wt=avg_logFC)
# A tibble: 2,400 x 7
# Groups:   cluster [24]
   p_val avg_logFC pct.1 pct.2 p_val_adj cluster gene  
   <dbl>     <dbl> <dbl> <dbl>     <dbl> <fct>   <chr> 
 1     0     1.19  1     0.577         0 0       CD24  
 2     0     1.12  1     0.867         0 0       APOE  
 3     0     1.11  1     0.827         0 0       L1TD1 
 4     0     1.08  1     0.836         0 0       POU5F1
 5     0     1.03  0.999 0.868         0 0       SFRP2 
 6     0     0.954 0.988 0.803         0 0       EPCAM 
 7     0     0.953 1     0.902         0 0       TUBB2B
 8     0     0.896 0.993 0.719         0 0       CLDN6 
 9     0     0.891 1     0.881         0 0       NASP  
10     0     0.837 1     0.968         0 0       HSPD1 
# ... with 2,390 more rows
…
