…
> 
> #Find top 100 markers for every cluster compared to all remaining clusters, report only the positive ones
> if(res=="0.1") {Idents(data.tot) <- data.tot@meta.data$integrated_snn_res.0.1}
> if(res=="0.5") {Idents(data.tot) <- data.tot@meta.data$integrated_snn_res.0.5}
> if(res=="1")   {Idents(data.tot) <- data.tot@meta.data$integrated_snn_res.1}
> 
> markers <- FindAllMarkers(data.tot, only.pos=TRUE, min.pct=0.25, logfc.threshold=0.25, features=geneTot)
Calculating cluster 0
Calculating cluster 1
Calculating cluster 2
Calculating cluster 3
Calculating cluster 4
Calculating cluster 5
> markers %>% group_by(cluster) %>% top_n(n=100, wt=avg_logFC)
# A tibble: 600 x 7
# Groups:   cluster [6]
   p_val avg_logFC pct.1 pct.2 p_val_adj cluster gene   
   <dbl>     <dbl> <dbl> <dbl>     <dbl> <fct>   <chr>  
 1     0      1.62 0.98  0.802         0 0       MMP1   
 2     0      1.29 1     0.845         0 0       LGALS1 
 3     0      1.28 1     0.911         0 0       TAGLN2 
 4     0      1.18 0.985 0.707         0 0       RGS4   
 5     0      1.17 1     0.985         0 0       VIM    
 6     0      1.17 1     0.994         0 0       TPM1   
 7     0      1.17 0.991 0.754         0 0       IER3   
 8     0      1.11 1     0.849         0 0       S100A16
 9     0      1.11 0.997 0.922         0 0       KRT18  
10     0      1.10 0.969 0.537         0 0       TGFBI  
# ... with 590 more rows
…
