…
Calculating cluster 4
Calculating cluster 5
Calculating cluster 6
Calculating cluster 7
Calculating cluster 8
Calculating cluster 9
Calculating cluster 10
Calculating cluster 11
Calculating cluster 12
Calculating cluster 13
Calculating cluster 14
Calculating cluster 15
Calculating cluster 16
> markers %>% group_by(cluster) %>% top_n(n=100, wt=avg_logFC)
# A tibble: 1,700 x 7
# Groups:   cluster [17]
   p_val avg_logFC pct.1 pct.2 p_val_adj cluster gene  
   <dbl>     <dbl> <dbl> <dbl>     <dbl> <fct>   <chr> 
 1     0     1.28  0.998 0.793         0 0       NUPR1 
 2     0     1.03  0.997 0.858         0 0       CTSD  
 3     0     1.03  0.995 0.918         0 0       GDF15 
 4     0     0.977 1     0.844         0 0       NNMT  
 5     0     0.968 1     0.925         0 0       COL1A1
 6     0     0.964 0.994 0.687         0 0       IFI6  
 7     0     0.955 1     0.807         0 0       IGFBP7
 8     0     0.953 0.999 0.928         0 0       ISG15 
 9     0     0.942 0.974 0.576         0 0       MFAP4 
10     0     0.922 0.996 0.777         0 0       COL1A2
# ... with 1,690 more rows
…
