…
> markers <- FindAllMarkers(data, only.pos=TRUE, min.pct=0.25, logfc.threshold=0.25, features=geneTot)
Calculating cluster 0
Calculating cluster 1
Calculating cluster 2
Calculating cluster 3
Calculating cluster 4
Calculating cluster 5
Calculating cluster 6
Calculating cluster 7
Calculating cluster 8
Calculating cluster 9
Calculating cluster 10
Calculating cluster 11
> markers %>% group_by(cluster) %>% top_n(n=100, wt=avg_logFC)
# A tibble: 1,200 x 7
# Groups:   cluster [12]
   p_val avg_logFC pct.1 pct.2 p_val_adj cluster gene  
   <dbl>     <dbl> <dbl> <dbl>     <dbl> <fct>   <chr> 
 1     0     1.10  0.999 0.937         0 0       KRT18 
 2     0     1.06  0.995 0.818         0 0       IER3  
 3     0     1.05  1     0.895         0 0       LGALS1
 4     0     1.01  0.981 0.628         0 0       MMP1  
 5     0     0.987 1     0.927         0 0       TAGLN2
 6     0     0.958 0.988 0.726         0 0       CCN2  
 7     0     0.952 1     0.996         0 0       TPM1  
 8     0     0.946 1     0.989         0 0       VIM   
 9     0     0.941 0.973 0.68          0 0       ACTG2 
10     0     0.921 0.999 0.823         0 0       COL4A1
# ... with 1,190 more rows
…
