…
> if(res=="0.5") {Idents(data) <- data@meta.data$integrated_snn_res.0.5}
> if(res=="0.75") {Idents(data) <- data@meta.data$integrated_snn_res.0.75}
> if(res=="1")   {Idents(data) <- data@meta.data$integrated_snn_res.1}
> 
> markers <- FindAllMarkers(data, only.pos=TRUE, min.pct=0.25, logfc.threshold=0.25, features=geneTot)
Calculating cluster 0
Calculating cluster 1
Calculating cluster 2
Calculating cluster 3
Calculating cluster 4
Calculating cluster 5
Calculating cluster 6
Calculating cluster 7
> markers %>% group_by(cluster) %>% top_n(n=100, wt=avg_logFC)
# A tibble: 800 x 7
# Groups:   cluster [8]
   p_val avg_logFC pct.1 pct.2 p_val_adj cluster gene  
   <dbl>     <dbl> <dbl> <dbl>     <dbl> <fct>   <chr> 
 1     0      2.00 1     0.516         0 0       CD24  
 2     0      1.96 1     0.81          0 0       APOE  
 3     0      1.82 0.998 0.674         0 0       POU5F1
 4     0      1.67 0.998 0.697         0 0       L1TD1 
 5     0      1.52 0.993 0.461         0 0       GAL   
 6     0      1.46 0.999 0.886         0 0       TUBB2B
 7     0      1.39 0.999 0.946         0 0       HMGA1 
 8     0      1.38 0.988 0.779         0 0       EPCAM 
 9     0      1.37 0.997 0.845         0 0       SFRP2 
10     0      1.33 0.995 0.793         0 0       TDGF1 
# ... with 790 more rows
…
