…
Calculating cluster 3
Calculating cluster 4
Calculating cluster 5
Calculating cluster 6
Calculating cluster 7
Calculating cluster 8
Calculating cluster 9
Calculating cluster 10
Calculating cluster 11
Calculating cluster 12
Calculating cluster 13
Calculating cluster 14
Calculating cluster 15
> markers %>% group_by(cluster) %>% top_n(n=100, wt=avg_logFC)
# A tibble: 1,600 x 7
# Groups:   cluster [16]
   p_val avg_logFC pct.1 pct.2 p_val_adj cluster gene  
   <dbl>     <dbl> <dbl> <dbl>     <dbl> <fct>   <chr> 
 1     0     1.32  0.997 0.772         0 0       NUPR1 
 2     0     1.02  0.999 0.782         0 0       NNMT  
 3     0     1.00  0.992 0.715         0 0       IFI6  
 4     0     0.990 0.994 0.92          0 0       GDF15 
 5     0     0.975 0.997 0.871         0 0       CTSD  
 6     0     0.925 0.994 0.827         0 0       IGFBP4
 7     0     0.918 0.965 0.535         0 0       MFAP4 
 8     0     0.915 1     0.822         0 0       IGFBP7
 9     0     0.893 0.976 0.603         0 0       DDIT3 
10     0     0.889 1     1             0 0       FTH1  
# ... with 1,590 more rows
…
